43 Kategoriska variabler (Factors) | Kurskompendium - introduktion till R
…
Om du behöver komma åt uppsättningen giltiga levels använder du levels():

levels(f2)

## [1] "Dec" "Apr" "Jan" "Mar"

43.3 General Social Survey

I resten av detta avsnitt ska vi använda forcats::gss_cat som är ett urval av data från General Social Survey, en amerikansk survey som sedan lång tid genomförs av en oberoende forskningsorganisation via universitetet i Chicago. Undersökningen innehåller tusentals frågor och i gss_cat finns en handfull av dessa, speciellt utvalda för att de illustrerar några utmaningar när man arbetar med factors.

gss_cat

## # A tibble: 21,483 x 9
##     year marital         age race  rincome        partyid            relig              denom             tvhours
##    <int> <fct>         <int> <fct> <fct>          <fct>              <fct>              <fct>               <int>
##  1  2000 Never married    26 White $8000 to 9999  Ind,near rep       Protestant         Southern baptist       12
##  2  2000 Divorced         48 White $8000 to 9999  Not str republican Protestant         Baptist-dk which       NA
##  3  2000 Widowed          67 White Not applicable Independent        Protestant         No denomination         2
##  4  2000 Never married    39 White Not applicable Ind,near rep       Orthodox-christian Not applicable          4
##  5  2000 Divorced         25 White Not applicable Not str democrat   None               Not applicable          1
##  6  2000 Married          25 White $20000 - 24999 Strong democrat    Protestant         Southern baptist       NA
##  7  2000 Never married    36 White $25000 or more Not str republican Christian          Not applicable          3
##  8  2000 Divorced         44 White $7000 to 7999  Ind,near dem       Protestant         Lutheran-mo synod      NA
##  9  2000 Married          44 White $25000 or more Not str democrat   Protestant         Other                   0
## 10  2000 Married          47 White $25000 or more Strong republican  Protestant         Southern baptist        3
## # ... with 21,473 more rows
…
