Kurskompendium - introduktion till R
…
Om du behöver komma åt uppsättningen giltiga levels använder du levels():

levels(f2)

## [1] "Dec" "Apr" "Jan" "Mar"

15.3 General Social Survey

I resten av detta avsnitt ska vi använda forcats::gss_cat som är ett urval av data från General Social Survey, en amerikansk survey som sedan lång tid genomförs av en oberoende forskningsorganisation via universitetet i Chicago. Undersökningen innehåller tusentals frågor och i gss_cat finns en handfull av dessa, speciellt utvalda för att de illustrerar några utmaningar när man arbetar med factors.

gss_cat

## # A tibble: 21,483 x 9
##     year marital     age race  rincome   partyid   relig   denom   tvhours
##    <int> <fct>     <int> <fct> <fct>     <fct>     <fct>   <fct>     <int>
##  1  2000 Never ma~    26 White $8000 to~ Ind,near~ Protes~ Southe~      12
##  2  2000 Divorced     48 White $8000 to~ Not str ~ Protes~ Baptis~      NA
##  3  2000 Widowed      67 White Not appl~ Independ~ Protes~ No den~       2
##  4  2000 Never ma~    39 White Not appl~ Ind,near~ Orthod~ Not ap~       4
##  5  2000 Divorced     25 White Not appl~ Not str ~ None    Not ap~       1
##  6  2000 Married      25 White $20000 -~ Strong d~ Protes~ Southe~      NA
##  7  2000 Never ma~    36 White $25000 o~ Not str ~ Christ~ Not ap~       3
##  8  2000 Divorced     44 White $7000 to~ Ind,near~ Protes~ Luther~      NA
##  9  2000 Married      44 White $25000 o~ Not str ~ Protes~ Other         0
## 10  2000 Married      47 White $25000 o~ Strong r~ Protes~ Southe~       3
## # ... with 21,473 more rows
…
