Kurskompendium - introduktion till R
…
library(nycflights13)
library(tidyverse)

När man laddar in tidyverse kommer ett antal felmeddelanden/varningar som talar om att dplyr skriver över några av funktionerna i base R, t.ex. filter() och lag(). Det är helt OK.

Datasetet vi ska använda finns i modulen nycflights13 och kallas flights. Du kan få information om innehållet genom hjälpfunktionen

?flights

Det är en dataframe som innehåller information om samtliga 336 776 flighter som lyfte från NYC airport 2013. Du kan få en bild av hur tabellen är uppbyggd genom att skriva tabellnamnet

flights

## # A tibble: 336,776 x 19
##     year month   day dep_time sched_dep_time dep_delay arr_time
##    <int> <int> <int>    <int>          <int>     <dbl>    <int>
##  1  2013     1     1      517            515         2      830
##  2  2013     1     1      533            529         4      850
##  3  2013     1     1      542            540         2      923
##  4  2013     1     1      544            545        -1     1004
##  5  2013     1     1      554            600        -6      812
##  6  2013     1     1      554            558        -4      740
##  7  2013     1     1      555            600        -5      913
##  8  2013     1     1      557            600        -3      709
##  9  2013     1     1      557            600        -3      838
## 10  2013     1     1      558            600        -2      753
## # ... with 336,766 more rows, and 12 more variables: sched_arr_time <int>,
## #   arr_delay <dbl>, carrier <chr>, flight <int>, tailnum <chr>,
## #   origin <chr>, dest <chr>, air_time <dbl>, distance <dbl>, hour <dbl>,
## #   minute <dbl>, time_hour <dttm>
…
Det första argumentet är namnet på datamängden/tabellen

De följande argumenten beskriver vad som ska göras med tabellen, genom att inkludera variabelnamnen

Resultet är en ny datatabell

Sammantaget gör dessa egenskaper det relativt lätt att länka samman flera enkla steg till en mer komplex kedja av manipulationer. Låt oss se hur det fungerar praktiskt.

5.3.1 Filtrera rader/poster med filter()

filter() låter dig välja ut en delmängd av posterna baserat på variabelvärden. De första argumentet är namnet på datamängden/tabellen. De övriga argumenten är uttryck som preciserar vad filtret ska göra. Vi börjar med att välja ut samtliga flighter som skedde den 1 januari.

filter(flights, month == 1, day == 1)

## # A tibble: 842 x 19
##     year month   day dep_time sched_dep_time dep_delay arr_time
##    <int> <int> <int>    <int>          <int>     <dbl>    <int>
##  1  2013     1     1      517            515         2      830
##  2  2013     1     1      533            529         4      850
##  3  2013     1     1      542            540         2      923
##  4  2013     1     1      544            545        -1     1004
##  5  2013     1     1      554            600        -6      812
##  6  2013     1     1      554            558        -4      740
##  7  2013     1     1      555            600        -5      913
##  8  2013     1     1      557            600        -3      709
##  9  2013     1     1      557            600        -3      838
## 10  2013     1     1      558            600        -2      753
## # ... with 832 more rows, and 12 more variables: sched_arr_time <int>,
## #   arr_delay <dbl>, carrier <chr>, flight <int>, tailnum <chr>,
## #   origin <chr>, dest <chr>, air_time <dbl>, distance <dbl>, hour <dbl>,
## #   minute <dbl>, time_hour <dttm>
…
Följande kod filtrerar fram samtliga fligheter som lyfte under november eller december:

filter(flights, month == 11 | month == 12)

## # A tibble: 55,403 x 19
##     year month   day dep_time sched_dep_time dep_delay arr_time
##    <int> <int> <int>    <int>          <int>     <dbl>    <int>
##  1  2013    11     1        5           2359         6      352
##  2  2013    11     1       35           2250       105      123
##  3  2013    11     1      455            500        -5      641
##  4  2013    11     1      539            545        -6      856
##  5  2013    11     1      542            545        -3      831
##  6  2013    11     1      549            600       -11      912
##  7  2013    11     1      550            600       -10      705
##  8  2013    11     1      554            600        -6      659
##  9  2013    11     1      554            600        -6      826
## 10  2013    11     1      554            600        -6      749
## # ... with 55,393 more rows, and 12 more variables: sched_arr_time <int>,
## #   arr_delay <dbl>, carrier <chr>, flight <int>, tailnum <chr>,
## #   origin <chr>, dest <chr>, air_time <dbl>, distance <dbl>, hour <dbl>,
## #   minute <dbl>, time_hour <dttm>
…
Avgick under juli, aug, september

Ankom med mer än 2 timmars försening men lyfte i tid

Ett annat filter-verktyg är between(). Hur fungerar det? Kan man förenkla filtreringarna i punkt 1 med hjälp av between()?

Hur många flighter saknar data för dep_time?

5.5 Arrangera poster med arrange()

arrange() fungerar på liknande sätt som filter() men istället för att filtrera poster så ändrar man deras inbördes ordning. Funktionen tar en data-frame och en eller flera kolumner för att ordna posterna. Om du använder mer än en kolumn kommer varje ytterligare kolumn att användas för att skapa brytpunkter i de följande kolumnerna. Pröva

arrange(flights, year, month, day)

## # A tibble: 336,776 x 19
##     year month   day dep_time sched_dep_time dep_delay arr_time
##    <int> <int> <int>    <int>          <int>     <dbl>    <int>
##  1  2013     1     1      517            515         2      830
##  2  2013     1     1      533            529         4      850
##  3  2013     1     1      542            540         2      923
##  4  2013     1     1      544            545        -1     1004
##  5  2013     1     1      554            600        -6      812
##  6  2013     1     1      554            558        -4      740
##  7  2013     1     1      555            600        -5      913
##  8  2013     1     1      557            600        -3      709
##  9  2013     1     1      557            600        -3      838
## 10  2013     1     1      558            600        -2      753
## # ... with 336,766 more rows, and 12 more variables: sched_arr_time <int>,
## #   arr_delay <dbl>, carrier <chr>, flight <int>, tailnum <chr>,
## #   origin <chr>, dest <chr>, air_time <dbl>, distance <dbl>, hour <dbl>,
## #   minute <dbl>, time_hour <dttm>

Man kan använda desc() för att sortera posterna i sjunkande ordning:

arrange(flights, desc(arr_delay))

## # A tibble: 336,776 x 19
##     year month   day dep_time sched_dep_time dep_delay arr_time
##    <int> <int> <int>    <int>          <int>     <dbl>    <int>
##  1  2013     1     9      641            900      1301     1242
##  2  2013     6    15     1432           1935      1137     1607
##  3  2013     1    10     1121           1635      1126     1239
##  4  2013     9    20     1139           1845      1014     1457
##  5  2013     7    22      845           1600      1005     1044
##  6  2013     4    10     1100           1900       960     1342
##  7  2013     3    17     2321            810       911      135
##  8  2013     7    22     2257            759       898      121
##  9  2013    12     5      756           1700       896     1058
## 10  2013     5     3     1133           2055       878     1250
## # ... with 336,766 more rows, and 12 more variables: sched_arr_time <int>,
## #   arr_delay <dbl>, carrier <chr>, flight <int>, tailnum <chr>,
## #   origin <chr>, dest <chr>, air_time <dbl>, distance <dbl>, hour <dbl>,
## #   minute <dbl>, time_hour <dttm>
…
Sortera flights för att identifiera de mest försenade flighterna. Gör samma för de som lyfte tidigast.

Sortera flights för att identifiera de snabbaste flighterna.

Vilka flighter flög längst? Kortast?

5.7 Välj kolumner med select()

Många gånger får man rådata med mängder av variabler och behöver egentligen endast ett fåtal. Funktionen select() ger möjlighet att snabbt avgränsa datamängden till de variabler man vill använda, baserat på variabelnamnen.

Välj kolumner med hjälp av deras namn:

select(flights, year, month, day)

## # A tibble: 336,776 x 3
##     year month   day
##    <int> <int> <int>
##  1  2013     1     1
##  2  2013     1     1
##  3  2013     1     1
##  4  2013     1     1
##  5  2013     1     1
##  6  2013     1     1
##  7  2013     1     1
##  8  2013     1     1
##  9  2013     1     1
## 10  2013     1     1
## # ... with 336,766 more rows

Välj samtliga kolumner fr.o.m. year t.o.m. day:

select(flights, year:day)

## # A tibble: 336,776 x 3
##     year month   day
##    <int> <int> <int>
##  1  2013     1     1
##  2  2013     1     1
##  3  2013     1     1
##  4  2013     1     1
##  5  2013     1     1
##  6  2013     1     1
##  7  2013     1     1
##  8  2013     1     1
##  9  2013     1     1
## 10  2013     1     1
## # ... with 336,766 more rows

Välj samtliga kolumner utom kolumnerna fr.o.m. year t.o.m. day:

select(flights, -(year:day))

## # A tibble: 336,776 x 16
##    dep_time sched_dep_time dep_delay arr_time sched_arr_time arr_delay
##       <int>          <int>     <dbl>    <int>          <int>     <dbl>
##  1      517            515         2      830            819        11
##  2      533            529         4      850            830        20
##  3      542            540         2      923            850        33
##  4      544            545        -1     1004           1022       -18
##  5      554            600        -6      812            837       -25
##  6      554            558        -4      740            728        12
##  7      555            600        -5      913            854        19
##  8      557            600        -3      709            723       -14
##  9      557            600        -3      838            846        -8
## 10      558            600        -2      753            745         8
## # ... with 336,766 more rows, and 10 more variables: carrier <chr>,
## #   flight <int>, tailnum <chr>, origin <chr>, dest <chr>, air_time <dbl>,
## #   distance <dbl>, hour <dbl>, minute <dbl>, time_hour <dttm>
…
ends_with("xyz"): matchar namn som slutar med “xyz”.

contains("ijk"): Matchar namn som innehåller “ijk”.

matches("(.)\\1"): väljer variabler som matchar ett regular expression. Detta exempel matchar varje variabel som innehåller upprepade tecken. Vi ska kika mer på regular expressions senare.

num_range("x", 1:3) matchar x1, x2 and x3.

Använd ?select för mer information.

select() kan användas för att ändra variabelnamn men är sällan en lämplig funktion för detta eftersom select() droppar alla de variabler som inte nämns explicit. Använd istället rename():

rename(flights, tail_num = tailnum)

## # A tibble: 336,776 x 19
##     year month   day dep_time sched_dep_time dep_delay arr_time
##    <int> <int> <int>    <int>          <int>     <dbl>    <int>
##  1  2013     1     1      517            515         2      830
##  2  2013     1     1      533            529         4      850
##  3  2013     1     1      542            540         2      923
##  4  2013     1     1      544            545        -1     1004
##  5  2013     1     1      554            600        -6      812
##  6  2013     1     1      554            558        -4      740
##  7  2013     1     1      555            600        -5      913
##  8  2013     1     1      557            600        -3      709
##  9  2013     1     1      557            600        -3      838
## 10  2013     1     1      558            600        -2      753
## # ... with 336,766 more rows, and 12 more variables: sched_arr_time <int>,
## #   arr_delay <dbl>, carrier <chr>, flight <int>, tail_num <chr>,
## #   origin <chr>, dest <chr>, air_time <dbl>, distance <dbl>, hour <dbl>,
## #   minute <dbl>, time_hour <dttm>

Ett annat alternativ är att använda hjälpfunktionen everything(). Detta kan vara praktiskt då du vill flytta vissa variabler t.ex. till början av datamängden:

select(flights, time_hour, air_time, everything())

## # A tibble: 336,776 x 19
##    time_hour           air_time  year month   day dep_time sched_dep_time
##    <dttm>                 <dbl> <int> <int> <int>    <int>          <int>
##  1 2013-01-01 05:00:00      227  2013     1     1      517            515
##  2 2013-01-01 05:00:00      227  2013     1     1      533            529
##  3 2013-01-01 05:00:00      160  2013     1     1      542            540
##  4 2013-01-01 05:00:00      183  2013     1     1      544            545
##  5 2013-01-01 06:00:00      116  2013     1     1      554            600
##  6 2013-01-01 05:00:00      150  2013     1     1      554            558
##  7 2013-01-01 06:00:00      158  2013     1     1      555            600
##  8 2013-01-01 06:00:00       53  2013     1     1      557            600
##  9 2013-01-01 06:00:00      140  2013     1     1      557            600
## 10 2013-01-01 06:00:00      138  2013     1     1      558            600
## # ... with 336,766 more rows, and 12 more variables: dep_delay <dbl>,
## #   arr_time <int>, sched_arr_time <int>, arr_delay <dbl>, carrier <chr>,
## #   flight <int>, tailnum <chr>, origin <chr>, dest <chr>, distance <dbl>,
## #   hour <dbl>, minute <dbl>

5.8 Övningar

Vad händer om du använder ett variabelnamn flera gånger i select()?

Vad åstadkommer hjälpfunktionen one_of()? Varför kan den vara till nytta tillsammans med nedanstående vektor?

vars <- c("year", "month", "day", "dep_delay", "arr_delay")

Blir du förvånad över resultatet av följande kod? Hur kan hjälpfunktionerna till select() hantera dessa “by default”? Hur kan du ändra “default”?

    select(flights, contains("TIME"))

## # A tibble: 336,776 x 6
##    dep_time sched_dep_time arr_time sched_arr_time air_time
##       <int>          <int>    <int>          <int>    <dbl>
##  1      517            515      830            819      227
##  2      533            529      850            830      227
##  3      542            540      923            850      160
##  4      544            545     1004           1022      183
##  5      554            600      812            837      116
##  6      554            558      740            728      150
##  7      555            600      913            854      158
##  8      557            600      709            723       53
##  9      557            600      838            846      140
## 10      558            600      753            745      138
## # ... with 336,766 more rows, and 1 more variable: time_hour <dttm>
…
mutate() lägger alltid till de nya variablerna sist i datamängden. Vi börjar med att reducera antalet variabler så att kolumnerena blir mer lättöverskådliga:

flights_sml <- select(flights, 
  year:day, 
  ends_with("delay"), 
  distance, 
  air_time
)
mutate(flights_sml,
  gain = arr_delay - dep_delay,
  speed = distance / air_time * 60
)

## # A tibble: 336,776 x 9
##     year month   day dep_delay arr_delay distance air_time  gain speed
##    <int> <int> <int>     <dbl>     <dbl>    <dbl>    <dbl> <dbl> <dbl>
##  1  2013     1     1         2        11     1400      227     9  370.
##  2  2013     1     1         4        20     1416      227    16  374.
##  3  2013     1     1         2        33     1089      160    31  408.
##  4  2013     1     1        -1       -18     1576      183   -17  517.
##  5  2013     1     1        -6       -25      762      116   -19  394.
##  6  2013     1     1        -4        12      719      150    16  288.
##  7  2013     1     1        -5        19     1065      158    24  404.
##  8  2013     1     1        -3       -14      229       53   -11  259.
##  9  2013     1     1        -3        -8      944      140    -5  405.
## 10  2013     1     1        -2         8      733      138    10  319.
## # ... with 336,766 more rows

Notera att du kan referera till de nya kolumnerna:

mutate(flights_sml,
  gain = arr_delay - dep_delay,
  hours = air_time / 60,
  gain_per_hour = gain / hours
)

## # A tibble: 336,776 x 10
##     year month   day dep_delay arr_delay distance air_time  gain hours
##    <int> <int> <int>     <dbl>     <dbl>    <dbl>    <dbl> <dbl> <dbl>
##  1  2013     1     1         2        11     1400      227     9 3.78 
##  2  2013     1     1         4        20     1416      227    16 3.78 
##  3  2013     1     1         2        33     1089      160    31 2.67 
##  4  2013     1     1        -1       -18     1576      183   -17 3.05 
##  5  2013     1     1        -6       -25      762      116   -19 1.93 
##  6  2013     1     1        -4        12      719      150    16 2.5  
##  7  2013     1     1        -5        19     1065      158    24 2.63 
##  8  2013     1     1        -3       -14      229       53   -11 0.883
##  9  2013     1     1        -3        -8      944      140    -5 2.33 
## 10  2013     1     1        -2         8      733      138    10 2.3  
## # ... with 336,766 more rows, and 1 more variable: gain_per_hour <dbl>

Om du vill endast behålla de nya variablerna kan du använda transmute():

transmute(flights,
  gain = arr_delay - dep_delay,
  hours = air_time / 60,
  gain_per_hour = gain / hours
)

## # A tibble: 336,776 x 3
##     gain hours gain_per_hour
##    <dbl> <dbl>         <dbl>
##  1     9 3.78           2.38
##  2    16 3.78           4.23
##  3    31 2.67          11.6 
##  4   -17 3.05          -5.57
##  5   -19 1.93          -9.83
##  6    16 2.5            6.4 
##  7    24 2.63           9.11
##  8   -11 0.883        -12.5 
##  9    -5 2.33          -2.14
## 10    10 2.3            4.35
## # ... with 336,766 more rows
…
Det finns alldeles för många funktioner som man kan använda tillsammans med mutate() för att kunna lista dem här. Men de nedanstående är en uppsättning som är de vanligast förekommande:

Aritmetiska operatorer: +, -, *, /, ^. Dessa vektoriseras genom “recycling rules”. Om en parameter är kortare än en annan kommer den att automatiskt förlängas till samma längd som den andra vektorn. Detta är mycket användbart då den ena parametern består av ett fixerat värde, t.ex. air_time/60 eller hours * 60 + minute.

Aritmetiska operatorer är också användbara tillsammans med aggregeringsfunktioner som vi ska kika på senare. Till exempel beräknar x / sum(x) andelen av en total; y - mean(y) beräknar avvikelsen från medelvärdet.

Modulär aritmetik: %/% (heltalsdivision) och %% (rest). Detta är en användbar funktion för att dekomponera ett heltal. Till exempel:

transmute(flights,
  dep_time,
  hour = dep_time %/% 100,
  minute = dep_time %% 100
)

## # A tibble: 336,776 x 3
##    dep_time  hour minute
##       <int> <dbl>  <dbl>
##  1      517     5     17
##  2      533     5     33
##  3      542     5     42
##  4      544     5     44
##  5      554     5     54
##  6      554     5     54
##  7      555     5     55
##  8      557     5     57
##  9      557     5     57
## 10      558     5     58
## # ... with 336,766 more rows
…
