Kurskompendium - introduktion till R
…
Man kan även använda funktionen geom_abline() för att visualisera en linjär regressionslinje men fördelen med att använda add_predictions() är att denna funktion fungerar för vilken modell som helst, oavsett komplexitet. För fler sätt att visualisera komplexa modeller se gärna http://vita.had.co.nz/papers/model-vis.html.

23.2.2 Residualer

Residualer är komplementet till prediktioner och är differensen mellan de observerade värdena och predicerade värdena.
Vi lägger till residualerna med hjälp av add_residuals(), som fungerar ungefär som add_predictions(). Men här behövs förstås det ursprungliga data där y-värdena finns:

sim1 <- sim1 %>% 
  add_residuals(sim1_mod)
sim1

## # A tibble: 30 x 3
##        x     y    resid
##    <int> <dbl>    <dbl>
##  1     1  4.20 -2.07   
##  2     1  7.51  1.24   
##  3     1  2.13 -4.15   
##  4     2  8.99  0.665  
##  5     2 10.2   1.92   
##  6     2 11.3   2.97   
##  7     3  7.36 -3.02   
##  8     3 10.5   0.130  
##  9     3 10.5   0.136  
## 10     4 12.4   0.00763
## # ... with 20 more rows
…
För att visualisera dessa modeller behöver vi justera koden från det tidigare exemplet:

Vi har två variabler så vi behöver ge data_grid() båda. Då kommer funktionen att ange samtliga unika värden på x1 och x2 och generera alla kombinationer av dessa.

För att generera prediktioner från båda modellerna samtidigt kan vi använda gather_predictions() som lägger till varje prediktion som en rad. Komplementet till gather_predictions() är spread_predictions() som lägger till varje prediktion till en ny kolumn.

Sammantaget ger oss detta:

grid <- sim3 %>% 
  data_grid(x1, x2) %>% 
  gather_predictions(mod1, mod2)
grid

## # A tibble: 80 x 4
##    model    x1 x2     pred
##    <chr> <int> <fct> <dbl>
##  1 mod1      1 a      1.67
##  2 mod1      1 b      4.56
##  3 mod1      1 c      6.48
##  4 mod1      1 d      4.03
##  5 mod1      2 a      1.48
##  6 mod1      2 b      4.37
##  7 mod1      2 c      6.28
##  8 mod1      2 d      3.84
##  9 mod1      3 a      1.28
## 10 mod1      3 b      4.17
## # ... with 70 more rows
…
23.3.3 Interaktioner (två kontinuerliga variabler)

Vi kikar på motsvarande modell för två kontinuerliga variabler. Vi kan i princip upprepa koden från ovanstående exempel till att börja med:

mod1 <- lm(y ~ x1 + x2, data = sim4)
mod2 <- lm(y ~ x1 * x2, data = sim4)
grid <- sim4 %>% 
  data_grid(
    x1 = seq_range(x1, 5), 
    x2 = seq_range(x2, 5) 
  ) %>% 
  gather_predictions(mod1, mod2)
grid

## # A tibble: 50 x 4
##    model    x1    x2   pred
##    <chr> <dbl> <dbl>  <dbl>
##  1 mod1   -1    -1    0.996
##  2 mod1   -1    -0.5 -0.395
##  3 mod1   -1     0   -1.79 
##  4 mod1   -1     0.5 -3.18 
##  5 mod1   -1     1   -4.57 
##  6 mod1   -0.5  -1    1.91 
##  7 mod1   -0.5  -0.5  0.516
##  8 mod1   -0.5   0   -0.875
##  9 mod1   -0.5   0.5 -2.27 
## 10 mod1   -0.5   1   -3.66 
## # ... with 40 more rows
…
