40 Städa data (tidy data) | Kurskompendium - introduktion till R
…
40.7 Övningar

Jämför argumentet fill med spread() och complete(). Skillnader?

Vad gör riktningsargumentet .direction till fill() ?

40.8 En case study

Som en avslutning på detta avsnitt ska vi använda funktionerna för att rensa ett ganska komplext dataset. Det är ett dataset hämtat från WHO och innehåller data om tuberkulos nedbrutet på år, nation, ålder, gender och diagnositisk metod. Källan är 2014 World Health Organization Global Tuberculosis Report, och finns på http://www.who.int/tb/country/data/download/en/. Det finns också inbyggt i tidyr och hämtas med hjälp av

tidyr::who

## # A tibble: 7,240 x 60
##    country iso2  iso3   year new_sp_m014 new_sp_m1524 new_sp_m2534 new_sp_m3544 new_sp_m4554 new_sp_m5564 new_sp_m65 new_sp_f014 new_sp_f1524 new_sp_f2534 new_sp_f3544
##    <chr>   <chr> <chr> <int>       <int>        <int>        <int>        <int>        <int>        <int>      <int>       <int>        <int>        <int>        <int>
##  1 Afghan~ AF    AFG    1980          NA           NA           NA           NA           NA           NA         NA          NA           NA           NA           NA
##  2 Afghan~ AF    AFG    1981          NA           NA           NA           NA           NA           NA         NA          NA           NA           NA           NA
##  3 Afghan~ AF    AFG    1982          NA           NA           NA           NA           NA           NA         NA          NA           NA           NA           NA
##  4 Afghan~ AF    AFG    1983          NA           NA           NA           NA           NA           NA         NA          NA           NA           NA           NA
##  5 Afghan~ AF    AFG    1984          NA           NA           NA           NA           NA           NA         NA          NA           NA           NA           NA
##  6 Afghan~ AF    AFG    1985          NA           NA           NA           NA           NA           NA         NA          NA           NA           NA           NA
##  7 Afghan~ AF    AFG    1986          NA           NA           NA           NA           NA           NA         NA          NA           NA           NA           NA
##  8 Afghan~ AF    AFG    1987          NA           NA           NA           NA           NA           NA         NA          NA           NA           NA           NA
##  9 Afghan~ AF    AFG    1988          NA           NA           NA           NA           NA           NA         NA          NA           NA           NA           NA
## 10 Afghan~ AF    AFG    1989          NA           NA           NA           NA           NA           NA         NA          NA           NA           NA           NA
## # ... with 7,230 more rows, and 45 more variables: new_sp_f4554 <int>, new_sp_f5564 <int>, new_sp_f65 <int>, new_sn_m014 <int>, new_sn_m1524 <int>, new_sn_m2534 <int>,
## #   new_sn_m3544 <int>, new_sn_m4554 <int>, new_sn_m5564 <int>, new_sn_m65 <int>, new_sn_f014 <int>, new_sn_f1524 <int>, new_sn_f2534 <int>, new_sn_f3544 <int>,
## #   new_sn_f4554 <int>, new_sn_f5564 <int>, new_sn_f65 <int>, new_ep_m014 <int>, new_ep_m1524 <int>, new_ep_m2534 <int>, new_ep_m3544 <int>, new_ep_m4554 <int>,
## #   new_ep_m5564 <int>, new_ep_m65 <int>, new_ep_f014 <int>, new_ep_f1524 <int>, new_ep_f2534 <int>, new_ep_f3544 <int>, new_ep_f4554 <int>, new_ep_f5564 <int>,
## #   new_ep_f65 <int>, newrel_m014 <int>, newrel_m1524 <int>, newrel_m2534 <int>, newrel_m3544 <int>, newrel_m4554 <int>, newrel_m5564 <int>, newrel_m65 <int>, newrel_f014 <int>,
## #   newrel_f1524 <int>, newrel_f2534 <int>, newrel_f3544 <int>, newrel_f4554 <int>, newrel_f5564 <int>, newrel_f65 <int>
…
Ett rimligt sätt att börja är att samla ihop alla kolumner som inte är variabler:
country, iso2 och iso3 är tre variabler som alla anger namnet på nationen.
year är uppenbart också en variabel.

Om vi kikar på de övriga kolumnnamnen (t.ex. new_sp_m014, new_ep_m014, new_ep_f014, osv) och deras innehåll verkar dessa vara värden, inte variabler.

Så låt oss börja med att samla ihop alla dessa kolumner. Eftersom vi inte riktigt vet vad kolumnerna representerar så anger vi den nya nyckel-kolumnen med det generiska key och eftersom vi antar att cellerna representerar antal TB-fall anger vi den nya värde-kolumnen som cases. Här finns massor av missing values så tills vidare använder vi na.rm = TRUE för att kunna fokusera på de befintliga värdena:

who1 <- who %>% 
  gather(new_sp_m014:newrel_f65, key = "key", value = "cases", na.rm = TRUE)

who1

## # A tibble: 76,046 x 6
##    country     iso2  iso3   year key         cases
##    <chr>       <chr> <chr> <int> <chr>       <int>
##  1 Afghanistan AF    AFG    1997 new_sp_m014     0
##  2 Afghanistan AF    AFG    1998 new_sp_m014    30
##  3 Afghanistan AF    AFG    1999 new_sp_m014     8
##  4 Afghanistan AF    AFG    2000 new_sp_m014    52
##  5 Afghanistan AF    AFG    2001 new_sp_m014   129
##  6 Afghanistan AF    AFG    2002 new_sp_m014    90
##  7 Afghanistan AF    AFG    2003 new_sp_m014   127
##  8 Afghanistan AF    AFG    2004 new_sp_m014   139
##  9 Afghanistan AF    AFG    2005 new_sp_m014   151
## 10 Afghanistan AF    AFG    2006 new_sp_m014   193
## # ... with 76,036 more rows

Vi kan få en aning om strukturen bland värdena i den nya nyckel-kolumnen genom att räkna antalet kategorier:

who1 %>% 
  count(key)

## # A tibble: 56 x 2
##    key              n
##    <chr>        <int>
##  1 new_ep_f014   1032
##  2 new_ep_f1524  1021
##  3 new_ep_f2534  1021
##  4 new_ep_f3544  1021
##  5 new_ep_f4554  1017
##  6 new_ep_f5564  1017
##  7 new_ep_f65    1014
##  8 new_ep_m014   1038
##  9 new_ep_m1524  1026
## 10 new_ep_m2534  1020
## # ... with 46 more rows
…
4554 = 45 – 54 years old

5564 = 55 – 64 years old

65 = 65 or older

Det finns en liten inkonsistens i nyckel-kolumnen: istället för new_rel används newrel (svårt att se vid i tibble-översikten men ses med hjälp av names(who)). Det behöver korrigeras för att få separate() att fungera som det ska. Vi fixar det genom att ersätta newrel med new_rel.
För detta använder vi str_replace() (återkommer till denna funktion i senare avsnitt.

who2 <- who1 %>% 
  mutate(key = stringr::str_replace(key, "newrel", "new_rel"))

who2

## # A tibble: 76,046 x 6
##    country     iso2  iso3   year key         cases
##    <chr>       <chr> <chr> <int> <chr>       <int>
##  1 Afghanistan AF    AFG    1997 new_sp_m014     0
##  2 Afghanistan AF    AFG    1998 new_sp_m014    30
##  3 Afghanistan AF    AFG    1999 new_sp_m014     8
##  4 Afghanistan AF    AFG    2000 new_sp_m014    52
##  5 Afghanistan AF    AFG    2001 new_sp_m014   129
##  6 Afghanistan AF    AFG    2002 new_sp_m014    90
##  7 Afghanistan AF    AFG    2003 new_sp_m014   127
##  8 Afghanistan AF    AFG    2004 new_sp_m014   139
##  9 Afghanistan AF    AFG    2005 new_sp_m014   151
## 10 Afghanistan AF    AFG    2006 new_sp_m014   193
## # ... with 76,036 more rows

Vi kollar resultatet med

names(who2)

Vi kan separera värdena under varje kategori med två omgångar med separate(). Först delar vi upp kategorierna vid varje underscore:

who3 <- who2 %>% 
  separate(key, c("new", "type", "sexage"), sep = "_")

who3

## # A tibble: 76,046 x 8
##    country     iso2  iso3   year new   type  sexage cases
##    <chr>       <chr> <chr> <int> <chr> <chr> <chr>  <int>
##  1 Afghanistan AF    AFG    1997 new   sp    m014       0
##  2 Afghanistan AF    AFG    1998 new   sp    m014      30
##  3 Afghanistan AF    AFG    1999 new   sp    m014       8
##  4 Afghanistan AF    AFG    2000 new   sp    m014      52
##  5 Afghanistan AF    AFG    2001 new   sp    m014     129
##  6 Afghanistan AF    AFG    2002 new   sp    m014      90
##  7 Afghanistan AF    AFG    2003 new   sp    m014     127
##  8 Afghanistan AF    AFG    2004 new   sp    m014     139
##  9 Afghanistan AF    AFG    2005 new   sp    m014     151
## 10 Afghanistan AF    AFG    2006 new   sp    m014     193
## # ... with 76,036 more rows

Vi kan göra oss av med kolumnerna new (den är konstant), iso2 och iso3 (redundanta):

who4 <- who3 %>% 
  select(-new, -iso2, -iso3)

Sedan separerar vi sexage till sex och age genom att dela upp värdena vid den första bokstaven:

who5 <- who4 %>% 
  separate(sexage, c("sex", "age"), sep = 1)

who5

## # A tibble: 76,046 x 6
##    country      year type  sex   age   cases
##    <chr>       <int> <chr> <chr> <chr> <int>
##  1 Afghanistan  1997 sp    m     014       0
##  2 Afghanistan  1998 sp    m     014      30
##  3 Afghanistan  1999 sp    m     014       8
##  4 Afghanistan  2000 sp    m     014      52
##  5 Afghanistan  2001 sp    m     014     129
##  6 Afghanistan  2002 sp    m     014      90
##  7 Afghanistan  2003 sp    m     014     127
##  8 Afghanistan  2004 sp    m     014     139
##  9 Afghanistan  2005 sp    m     014     151
## 10 Afghanistan  2006 sp    m     014     193
## # ... with 76,036 more rows

Därmed har vi rensat data till att bli ett tidy dataset.

Istället för att göra det ett steg i sänder kan du göra samma sak genom att bygga upp en “pipe”:

who %>%
  gather(key, value, new_sp_m014:newrel_f65, na.rm = TRUE) %>% 
  mutate(key = stringr::str_replace(key, "newrel", "new_rel")) %>%
  separate(key, c("new", "var", "sexage")) %>% 
  select(-new, -iso2, -iso3) %>% 
  separate(sexage, c("sex", "age"), sep = 1)

## # A tibble: 76,046 x 6
##    country      year var   sex   age   value
##    <chr>       <int> <chr> <chr> <chr> <int>
##  1 Afghanistan  1997 sp    m     014       0
##  2 Afghanistan  1998 sp    m     014      30
##  3 Afghanistan  1999 sp    m     014       8
##  4 Afghanistan  2000 sp    m     014      52
##  5 Afghanistan  2001 sp    m     014     129
##  6 Afghanistan  2002 sp    m     014      90
##  7 Afghanistan  2003 sp    m     014     127
##  8 Afghanistan  2004 sp    m     014     139
##  9 Afghanistan  2005 sp    m     014     151
## 10 Afghanistan  2006 sp    m     014     193
## # ... with 76,036 more rows
…
