32 Transformering av data | Kurskompendium - introduktion till R
…
library(nycflights13)
library(tidyverse)

När man laddar in tidyverse kommer ett antal felmeddelanden/varningar som talar om att dplyr skriver över några av funktionerna i base R, t.ex. filter() och lag(). Det är helt OK.

Datasetet vi ska använda finns i modulen nycflights13 och kallas flights. Du kan få information om innehållet genom hjälpfunktionen

?flights

Det är en dataframe som innehåller information om samtliga 336 776 flighter som lyfte från NYC airport 2013. Du kan få en bild av hur tabellen är uppbyggd genom att skriva tabellnamnet

flights

## # A tibble: 336,776 x 19
##     year month   day dep_time sched_dep_time dep_delay arr_time sched_arr_time arr_delay carrier flight tailnum origin dest  air_time distance  hour minute time_hour          
##    <int> <int> <int>    <int>          <int>     <dbl>    <int>          <int>     <dbl> <chr>    <int> <chr>   <chr>  <chr>    <dbl>    <dbl> <dbl>  <dbl> <dttm>             
##  1  2013     1     1      517            515         2      830            819        11 UA        1545 N14228  EWR    IAH        227     1400     5     15 2013-01-01 05:00:00
##  2  2013     1     1      533            529         4      850            830        20 UA        1714 N24211  LGA    IAH        227     1416     5     29 2013-01-01 05:00:00
##  3  2013     1     1      542            540         2      923            850        33 AA        1141 N619AA  JFK    MIA        160     1089     5     40 2013-01-01 05:00:00
##  4  2013     1     1      544            545        -1     1004           1022       -18 B6         725 N804JB  JFK    BQN        183     1576     5     45 2013-01-01 05:00:00
##  5  2013     1     1      554            600        -6      812            837       -25 DL         461 N668DN  LGA    ATL        116      762     6      0 2013-01-01 06:00:00
##  6  2013     1     1      554            558        -4      740            728        12 UA        1696 N39463  EWR    ORD        150      719     5     58 2013-01-01 05:00:00
##  7  2013     1     1      555            600        -5      913            854        19 B6         507 N516JB  EWR    FLL        158     1065     6      0 2013-01-01 06:00:00
##  8  2013     1     1      557            600        -3      709            723       -14 EV        5708 N829AS  LGA    IAD         53      229     6      0 2013-01-01 06:00:00
##  9  2013     1     1      557            600        -3      838            846        -8 B6          79 N593JB  JFK    MCO        140      944     6      0 2013-01-01 06:00:00
## 10  2013     1     1      558            600        -2      753            745         8 AA         301 N3ALAA  LGA    ORD        138      733     6      0 2013-01-01 06:00:00
## # ... with 336,766 more rows
…
Det första argumentet är namnet på datamängden/tabellen

De följande argumenten beskriver vad som ska göras med tabellen, genom att inkludera variabelnamnen

Resultet är en ny datatabell

Sammantaget gör dessa egenskaper det relativt lätt att länka samman flera enkla steg till en mer komplex kedja av manipulationer. Låt oss se hur det fungerar praktiskt.

32.3.1 Filtrera rader/poster med filter()

filter() låter dig välja ut en delmängd av posterna baserat på variabelvärden. De första argumentet är namnet på datamängden/tabellen. De övriga argumenten är uttryck som preciserar vad filtret ska göra. Vi börjar med att välja ut samtliga flighter som skedde den 1 januari.

filter(flights, month == 1, day == 1)

## # A tibble: 842 x 19
##     year month   day dep_time sched_dep_time dep_delay arr_time sched_arr_time arr_delay carrier flight tailnum origin dest  air_time distance  hour minute time_hour          
##    <int> <int> <int>    <int>          <int>     <dbl>    <int>          <int>     <dbl> <chr>    <int> <chr>   <chr>  <chr>    <dbl>    <dbl> <dbl>  <dbl> <dttm>             
##  1  2013     1     1      517            515         2      830            819        11 UA        1545 N14228  EWR    IAH        227     1400     5     15 2013-01-01 05:00:00
##  2  2013     1     1      533            529         4      850            830        20 UA        1714 N24211  LGA    IAH        227     1416     5     29 2013-01-01 05:00:00
##  3  2013     1     1      542            540         2      923            850        33 AA        1141 N619AA  JFK    MIA        160     1089     5     40 2013-01-01 05:00:00
##  4  2013     1     1      544            545        -1     1004           1022       -18 B6         725 N804JB  JFK    BQN        183     1576     5     45 2013-01-01 05:00:00
##  5  2013     1     1      554            600        -6      812            837       -25 DL         461 N668DN  LGA    ATL        116      762     6      0 2013-01-01 06:00:00
##  6  2013     1     1      554            558        -4      740            728        12 UA        1696 N39463  EWR    ORD        150      719     5     58 2013-01-01 05:00:00
##  7  2013     1     1      555            600        -5      913            854        19 B6         507 N516JB  EWR    FLL        158     1065     6      0 2013-01-01 06:00:00
##  8  2013     1     1      557            600        -3      709            723       -14 EV        5708 N829AS  LGA    IAD         53      229     6      0 2013-01-01 06:00:00
##  9  2013     1     1      557            600        -3      838            846        -8 B6          79 N593JB  JFK    MCO        140      944     6      0 2013-01-01 06:00:00
## 10  2013     1     1      558            600        -2      753            745         8 AA         301 N3ALAA  LGA    ORD        138      733     6      0 2013-01-01 06:00:00
## # ... with 832 more rows
…
Följande kod filtrerar fram samtliga fligheter som lyfte under november eller december:

filter(flights, month == 11 | month == 12)

## # A tibble: 55,403 x 19
##     year month   day dep_time sched_dep_time dep_delay arr_time sched_arr_time arr_delay carrier flight tailnum origin dest  air_time distance  hour minute time_hour          
##    <int> <int> <int>    <int>          <int>     <dbl>    <int>          <int>     <dbl> <chr>    <int> <chr>   <chr>  <chr>    <dbl>    <dbl> <dbl>  <dbl> <dttm>             
##  1  2013    11     1        5           2359         6      352            345         7 B6         745 N568JB  JFK    PSE        205     1617    23     59 2013-11-01 23:00:00
##  2  2013    11     1       35           2250       105      123           2356        87 B6        1816 N353JB  JFK    SYR         36      209    22     50 2013-11-01 22:00:00
##  3  2013    11     1      455            500        -5      641            651       -10 US        1895 N192UW  EWR    CLT         88      529     5      0 2013-11-01 05:00:00
##  4  2013    11     1      539            545        -6      856            827        29 UA        1714 N38727  LGA    IAH        229     1416     5     45 2013-11-01 05:00:00
##  5  2013    11     1      542            545        -3      831            855       -24 AA        2243 N5CLAA  JFK    MIA        147     1089     5     45 2013-11-01 05:00:00
##  6  2013    11     1      549            600       -11      912            923       -11 UA         303 N595UA  JFK    SFO        359     2586     6      0 2013-11-01 06:00:00
##  7  2013    11     1      550            600       -10      705            659         6 US        2167 N748UW  LGA    DCA         57      214     6      0 2013-11-01 06:00:00
##  8  2013    11     1      554            600        -6      659            701        -2 US        2134 N742PS  LGA    BOS         40      184     6      0 2013-11-01 06:00:00
##  9  2013    11     1      554            600        -6      826            827        -1 DL         563 N912DE  LGA    ATL        126      762     6      0 2013-11-01 06:00:00
## 10  2013    11     1      554            600        -6      749            751        -2 DL         731 N315NB  LGA    DTW         93      502     6      0 2013-11-01 06:00:00
## # ... with 55,393 more rows
…
Avgick under juli, aug, september

Ankom med mer än 2 timmars försening men lyfte i tid

Ett annat filter-verktyg är between(). Hur fungerar det? Kan man förenkla filtreringarna i punkt 1 med hjälp av between()?

Hur många flighter saknar data för dep_time?

32.5 Arrangera poster med arrange()

arrange() fungerar på liknande sätt som filter() men istället för att filtrera poster så ändrar man deras inbördes ordning. Funktionen tar en data-frame och en eller flera kolumner för att ordna posterna. Om du använder mer än en kolumn kommer varje ytterligare kolumn att användas för att skapa brytpunkter i de följande kolumnerna. Pröva

arrange(flights, year, month, day)

## # A tibble: 336,776 x 19
##     year month   day dep_time sched_dep_time dep_delay arr_time sched_arr_time arr_delay carrier flight tailnum origin dest  air_time distance  hour minute time_hour          
##    <int> <int> <int>    <int>          <int>     <dbl>    <int>          <int>     <dbl> <chr>    <int> <chr>   <chr>  <chr>    <dbl>    <dbl> <dbl>  <dbl> <dttm>             
##  1  2013     1     1      517            515         2      830            819        11 UA        1545 N14228  EWR    IAH        227     1400     5     15 2013-01-01 05:00:00
##  2  2013     1     1      533            529         4      850            830        20 UA        1714 N24211  LGA    IAH        227     1416     5     29 2013-01-01 05:00:00
##  3  2013     1     1      542            540         2      923            850        33 AA        1141 N619AA  JFK    MIA        160     1089     5     40 2013-01-01 05:00:00
##  4  2013     1     1      544            545        -1     1004           1022       -18 B6         725 N804JB  JFK    BQN        183     1576     5     45 2013-01-01 05:00:00
##  5  2013     1     1      554            600        -6      812            837       -25 DL         461 N668DN  LGA    ATL        116      762     6      0 2013-01-01 06:00:00
##  6  2013     1     1      554            558        -4      740            728        12 UA        1696 N39463  EWR    ORD        150      719     5     58 2013-01-01 05:00:00
##  7  2013     1     1      555            600        -5      913            854        19 B6         507 N516JB  EWR    FLL        158     1065     6      0 2013-01-01 06:00:00
##  8  2013     1     1      557            600        -3      709            723       -14 EV        5708 N829AS  LGA    IAD         53      229     6      0 2013-01-01 06:00:00
##  9  2013     1     1      557            600        -3      838            846        -8 B6          79 N593JB  JFK    MCO        140      944     6      0 2013-01-01 06:00:00
## 10  2013     1     1      558            600        -2      753            745         8 AA         301 N3ALAA  LGA    ORD        138      733     6      0 2013-01-01 06:00:00
## # ... with 336,766 more rows

Man kan använda desc() för att sortera posterna i sjunkande ordning:

arrange(flights, desc(arr_delay))

## # A tibble: 336,776 x 19
##     year month   day dep_time sched_dep_time dep_delay arr_time sched_arr_time arr_delay carrier flight tailnum origin dest  air_time distance  hour minute time_hour          
##    <int> <int> <int>    <int>          <int>     <dbl>    <int>          <int>     <dbl> <chr>    <int> <chr>   <chr>  <chr>    <dbl>    <dbl> <dbl>  <dbl> <dttm>             
##  1  2013     1     9      641            900      1301     1242           1530      1272 HA          51 N384HA  JFK    HNL        640     4983     9      0 2013-01-09 09:00:00
##  2  2013     6    15     1432           1935      1137     1607           2120      1127 MQ        3535 N504MQ  JFK    CMH         74      483    19     35 2013-06-15 19:00:00
##  3  2013     1    10     1121           1635      1126     1239           1810      1109 MQ        3695 N517MQ  EWR    ORD        111      719    16     35 2013-01-10 16:00:00
##  4  2013     9    20     1139           1845      1014     1457           2210      1007 AA         177 N338AA  JFK    SFO        354     2586    18     45 2013-09-20 18:00:00
##  5  2013     7    22      845           1600      1005     1044           1815       989 MQ        3075 N665MQ  JFK    CVG         96      589    16      0 2013-07-22 16:00:00
##  6  2013     4    10     1100           1900       960     1342           2211       931 DL        2391 N959DL  JFK    TPA        139     1005    19      0 2013-04-10 19:00:00
##  7  2013     3    17     2321            810       911      135           1020       915 DL        2119 N927DA  LGA    MSP        167     1020     8     10 2013-03-17 08:00:00
##  8  2013     7    22     2257            759       898      121           1026       895 DL        2047 N6716C  LGA    ATL        109      762     7     59 2013-07-22 07:00:00
##  9  2013    12     5      756           1700       896     1058           2020       878 AA         172 N5DMAA  EWR    MIA        149     1085    17      0 2013-12-05 17:00:00
## 10  2013     5     3     1133           2055       878     1250           2215       875 MQ        3744 N523MQ  EWR    ORD        112      719    20     55 2013-05-03 20:00:00
## # ... with 336,766 more rows
…
Sortera flights för att identifiera de mest försenade flighterna. Gör samma för de som lyfte tidigast.

Sortera flights för att identifiera de snabbaste flighterna.

Vilka flighter flög längst? Kortast?

32.7 Välj kolumner med select()

Många gånger får man rådata med mängder av variabler och behöver egentligen endast ett fåtal. Funktionen select() ger möjlighet att snabbt avgränsa datamängden till de variabler man vill använda, baserat på variabelnamnen.

Välj kolumner med hjälp av deras namn:

select(flights, year, month, day)

## # A tibble: 336,776 x 3
##     year month   day
##    <int> <int> <int>
##  1  2013     1     1
##  2  2013     1     1
##  3  2013     1     1
##  4  2013     1     1
##  5  2013     1     1
##  6  2013     1     1
##  7  2013     1     1
##  8  2013     1     1
##  9  2013     1     1
## 10  2013     1     1
## # ... with 336,766 more rows

Välj samtliga kolumner fr.o.m. year t.o.m. day:

select(flights, year:day)

## # A tibble: 336,776 x 3
##     year month   day
##    <int> <int> <int>
##  1  2013     1     1
##  2  2013     1     1
##  3  2013     1     1
##  4  2013     1     1
##  5  2013     1     1
##  6  2013     1     1
##  7  2013     1     1
##  8  2013     1     1
##  9  2013     1     1
## 10  2013     1     1
## # ... with 336,766 more rows

Välj samtliga kolumner utom kolumnerna fr.o.m. year t.o.m. day:

select(flights, -(year:day))

## # A tibble: 336,776 x 16
##    dep_time sched_dep_time dep_delay arr_time sched_arr_time arr_delay carrier flight tailnum origin dest  air_time distance  hour minute time_hour          
##       <int>          <int>     <dbl>    <int>          <int>     <dbl> <chr>    <int> <chr>   <chr>  <chr>    <dbl>    <dbl> <dbl>  <dbl> <dttm>             
##  1      517            515         2      830            819        11 UA        1545 N14228  EWR    IAH        227     1400     5     15 2013-01-01 05:00:00
##  2      533            529         4      850            830        20 UA        1714 N24211  LGA    IAH        227     1416     5     29 2013-01-01 05:00:00
##  3      542            540         2      923            850        33 AA        1141 N619AA  JFK    MIA        160     1089     5     40 2013-01-01 05:00:00
##  4      544            545        -1     1004           1022       -18 B6         725 N804JB  JFK    BQN        183     1576     5     45 2013-01-01 05:00:00
##  5      554            600        -6      812            837       -25 DL         461 N668DN  LGA    ATL        116      762     6      0 2013-01-01 06:00:00
##  6      554            558        -4      740            728        12 UA        1696 N39463  EWR    ORD        150      719     5     58 2013-01-01 05:00:00
##  7      555            600        -5      913            854        19 B6         507 N516JB  EWR    FLL        158     1065     6      0 2013-01-01 06:00:00
##  8      557            600        -3      709            723       -14 EV        5708 N829AS  LGA    IAD         53      229     6      0 2013-01-01 06:00:00
##  9      557            600        -3      838            846        -8 B6          79 N593JB  JFK    MCO        140      944     6      0 2013-01-01 06:00:00
## 10      558            600        -2      753            745         8 AA         301 N3ALAA  LGA    ORD        138      733     6      0 2013-01-01 06:00:00
## # ... with 336,766 more rows
…
ends_with("xyz"): matchar namn som slutar med “xyz”.

contains("ijk"): Matchar namn som innehåller “ijk”.

matches("(.)\\1"): väljer variabler som matchar ett regular expression. Detta exempel matchar varje variabel som innehåller upprepade tecken. Vi ska kika mer på regular expressions senare.

num_range("x", 1:3) matchar x1, x2 and x3.

Använd ?select för mer information.

select() kan användas för att ändra variabelnamn men är sällan en lämplig funktion för detta eftersom select() droppar alla de variabler som inte nämns explicit. Använd istället rename():

rename(flights, tail_num = tailnum)

## # A tibble: 336,776 x 19
##     year month   day dep_time sched_dep_time dep_delay arr_time sched_arr_time arr_delay carrier flight tail_num origin dest  air_time distance  hour minute time_hour          
##    <int> <int> <int>    <int>          <int>     <dbl>    <int>          <int>     <dbl> <chr>    <int> <chr>    <chr>  <chr>    <dbl>    <dbl> <dbl>  <dbl> <dttm>             
##  1  2013     1     1      517            515         2      830            819        11 UA        1545 N14228   EWR    IAH        227     1400     5     15 2013-01-01 05:00:00
##  2  2013     1     1      533            529         4      850            830        20 UA        1714 N24211   LGA    IAH        227     1416     5     29 2013-01-01 05:00:00
##  3  2013     1     1      542            540         2      923            850        33 AA        1141 N619AA   JFK    MIA        160     1089     5     40 2013-01-01 05:00:00
##  4  2013     1     1      544            545        -1     1004           1022       -18 B6         725 N804JB   JFK    BQN        183     1576     5     45 2013-01-01 05:00:00
##  5  2013     1     1      554            600        -6      812            837       -25 DL         461 N668DN   LGA    ATL        116      762     6      0 2013-01-01 06:00:00
##  6  2013     1     1      554            558        -4      740            728        12 UA        1696 N39463   EWR    ORD        150      719     5     58 2013-01-01 05:00:00
##  7  2013     1     1      555            600        -5      913            854        19 B6         507 N516JB   EWR    FLL        158     1065     6      0 2013-01-01 06:00:00
##  8  2013     1     1      557            600        -3      709            723       -14 EV        5708 N829AS   LGA    IAD         53      229     6      0 2013-01-01 06:00:00
##  9  2013     1     1      557            600        -3      838            846        -8 B6          79 N593JB   JFK    MCO        140      944     6      0 2013-01-01 06:00:00
## 10  2013     1     1      558            600        -2      753            745         8 AA         301 N3ALAA   LGA    ORD        138      733     6      0 2013-01-01 06:00:00
## # ... with 336,766 more rows
…
