7 Explorativ analys av data | Kurskompendium - introduktion till R
…
Storleken på varje cirkel markerar hur många obserbvationer nsom finns under varje kombination.

Ett alternativt sätt är att beräkna antalet observartioner med dplyr:

diamonds %>% 
  count(color, cut)

## # A tibble: 35 x 3
##    color cut           n
##    <ord> <ord>     <int>
##  1 D     Fair        163
##  2 D     Good        662
##  3 D     Very Good  1513
##  4 D     Premium    1603
##  5 D     Ideal      2834
##  6 E     Fair        224
##  7 E     Good        933
##  8 E     Very Good  2400
##  9 E     Premium    2337
## 10 E     Ideal      3903
## # ... with 25 more rows
…
