41 Relationer mellan datamängder | Kurskompendium - introduktion till R
…
airports innehåller information om varje flygplats, identifierad via dess flygplatskod:

airports

## # A tibble: 1,458 x 8
##    faa   name                             lat    lon   alt    tz dst   tzone              
##    <chr> <chr>                          <dbl>  <dbl> <dbl> <dbl> <chr> <chr>              
##  1 04G   Lansdowne Airport               41.1  -80.6  1044    -5 A     America/New_York   
##  2 06A   Moton Field Municipal Airport   32.5  -85.7   264    -6 A     America/Chicago    
##  3 06C   Schaumburg Regional             42.0  -88.1   801    -6 A     America/Chicago    
##  4 06N   Randall Airport                 41.4  -74.4   523    -5 A     America/New_York   
##  5 09J   Jekyll Island Airport           31.1  -81.4    11    -5 A     America/New_York   
##  6 0A9   Elizabethton Municipal Airport  36.4  -82.2  1593    -5 A     America/New_York   
##  7 0G6   Williams County Airport         41.5  -84.5   730    -5 A     America/New_York   
##  8 0G7   Finger Lakes Regional Airport   42.9  -76.8   492    -5 A     America/New_York   
##  9 0P2   Shoestring Aviation Airfield    39.8  -76.6  1000    -5 U     America/New_York   
## 10 0S9   Jefferson County Intl           48.1 -123.    108    -8 A     America/Los_Angeles
## # ... with 1,448 more rows

planes innehåller information om varje plan identifierad via dess tailnum:

planes

## # A tibble: 3,322 x 9
##    tailnum  year type                    manufacturer     model     engines seats speed engine   
##    <chr>   <int> <chr>                   <chr>            <chr>       <int> <int> <int> <chr>    
##  1 N10156   2004 Fixed wing multi engine EMBRAER          EMB-145XR       2    55    NA Turbo-fan
##  2 N102UW   1998 Fixed wing multi engine AIRBUS INDUSTRIE A320-214        2   182    NA Turbo-fan
##  3 N103US   1999 Fixed wing multi engine AIRBUS INDUSTRIE A320-214        2   182    NA Turbo-fan
##  4 N104UW   1999 Fixed wing multi engine AIRBUS INDUSTRIE A320-214        2   182    NA Turbo-fan
##  5 N10575   2002 Fixed wing multi engine EMBRAER          EMB-145LR       2    55    NA Turbo-fan
##  6 N105UW   1999 Fixed wing multi engine AIRBUS INDUSTRIE A320-214        2   182    NA Turbo-fan
##  7 N107US   1999 Fixed wing multi engine AIRBUS INDUSTRIE A320-214        2   182    NA Turbo-fan
##  8 N108UW   1999 Fixed wing multi engine AIRBUS INDUSTRIE A320-214        2   182    NA Turbo-fan
##  9 N109UW   1999 Fixed wing multi engine AIRBUS INDUSTRIE A320-214        2   182    NA Turbo-fan
## 10 N110UW   1999 Fixed wing multi engine AIRBUS INDUSTRIE A320-214        2   182    NA Turbo-fan
## # ... with 3,312 more rows

weather innehåller information om vädret vid varje NYC airport per timma:

weather

## # A tibble: 26,115 x 15
##    origin  year month   day  hour  temp  dewp humid wind_dir wind_speed wind_gust precip pressure visib time_hour          
##    <chr>  <int> <int> <int> <int> <dbl> <dbl> <dbl>    <dbl>      <dbl>     <dbl>  <dbl>    <dbl> <dbl> <dttm>             
##  1 EWR     2013     1     1     1  39.0  26.1  59.4      270      10.4         NA      0    1012     10 2013-01-01 01:00:00
##  2 EWR     2013     1     1     2  39.0  27.0  61.6      250       8.06        NA      0    1012.    10 2013-01-01 02:00:00
##  3 EWR     2013     1     1     3  39.0  28.0  64.4      240      11.5         NA      0    1012.    10 2013-01-01 03:00:00
##  4 EWR     2013     1     1     4  39.9  28.0  62.2      250      12.7         NA      0    1012.    10 2013-01-01 04:00:00
##  5 EWR     2013     1     1     5  39.0  28.0  64.4      260      12.7         NA      0    1012.    10 2013-01-01 05:00:00
##  6 EWR     2013     1     1     6  37.9  28.0  67.2      240      11.5         NA      0    1012.    10 2013-01-01 06:00:00
##  7 EWR     2013     1     1     7  39.0  28.0  64.4      240      15.0         NA      0    1012.    10 2013-01-01 07:00:00
##  8 EWR     2013     1     1     8  39.9  28.0  62.2      250      10.4         NA      0    1012.    10 2013-01-01 08:00:00
##  9 EWR     2013     1     1     9  39.9  28.0  62.2      260      15.0         NA      0    1013.    10 2013-01-01 09:00:00
## 10 EWR     2013     1     1    10  41    28.0  59.6      260      13.8         NA      0    1012.    10 2013-01-01 10:00:00
## # ... with 26,105 more rows
…
## # A tibble: 3 x 6
##    year month   day  hour origin     n
##   <int> <int> <int> <int> <chr>  <int>
## 1  2013    11     3     1 EWR        2
## 2  2013    11     3     1 JFK        2
## 3  2013    11     3     1 LGA        2

Ibland saknas en tabell en explicit primary key: varje rad är en observation men ingen kombination av variabler identifierar den. Till exempel, vilken är primärnyckel i flight-tabellen? Du kanske tänker att det är datum (date) + flight-numret eller tailnum, men ingen av dessa kombinationer är unik:

flights %>% 
  count(year, month, day, flight) %>% 
  filter(n > 1)

## # A tibble: 29,768 x 5
##     year month   day flight     n
##    <int> <int> <int>  <int> <int>
##  1  2013     1     1      1     2
##  2  2013     1     1      3     2
##  3  2013     1     1      4     2
##  4  2013     1     1     11     3
##  5  2013     1     1     15     2
##  6  2013     1     1     21     2
##  7  2013     1     1     27     4
##  8  2013     1     1     31     2
##  9  2013     1     1     32     2
## 10  2013     1     1     35     2
## # ... with 29,758 more rows

flights %>% 
  count(year, month, day, tailnum) %>% 
  filter(n > 1)

## # A tibble: 64,928 x 5
##     year month   day tailnum     n
##    <int> <int> <int> <chr>   <int>
##  1  2013     1     1 N0EGMQ      2
##  2  2013     1     1 N11189      2
##  3  2013     1     1 N11536      2
##  4  2013     1     1 N11544      3
##  5  2013     1     1 N11551      2
##  6  2013     1     1 N12540      2
##  7  2013     1     1 N12567      2
##  8  2013     1     1 N13123      2
##  9  2013     1     1 N13538      3
## 10  2013     1     1 N13566      3
## # ... with 64,918 more rows
Om en tabell saknar en primärnyckel kan det ibland vara vettigt att skapa en med hjälp av mutate() och row_number(), en surrogat-nyckel.

En primärnyckel och en korresponderande foreign key i en annan tabell utgör en relation. Relationer är vanligen en-till-flera. Till exempel, varje flight har ett plan men varje plan har flera flighter. Det finns naturligtvis alla varianter på relationer, en-till-en och flera-till-flera.

41.4 Mutating joins

Först ska vi kika på ett verktyg för att kombinera två tabeller: the mutating join. Det matchar först poster med hjälp av dess nycklar, sedan kopieras valda variabler från den ena tabellen till den andra.

Liksom mutate()adderar join-funktionerna variabler till höger så om du har många vafriabler blir det svårt att se de nya på skärmen. Vi ska därför, för nedanstående exempel, skapa ett smalare dataset:

flights2 <- flights %>% 
  select(year:day, hour, origin, dest, tailnum, carrier)
flights2

## # A tibble: 336,776 x 8
##     year month   day  hour origin dest  tailnum carrier
##    <int> <int> <int> <dbl> <chr>  <chr> <chr>   <chr>  
##  1  2013     1     1     5 EWR    IAH   N14228  UA     
##  2  2013     1     1     5 LGA    IAH   N24211  UA     
##  3  2013     1     1     5 JFK    MIA   N619AA  AA     
##  4  2013     1     1     5 JFK    BQN   N804JB  B6     
##  5  2013     1     1     6 LGA    ATL   N668DN  DL     
##  6  2013     1     1     5 EWR    ORD   N39463  UA     
##  7  2013     1     1     6 EWR    FLL   N516JB  B6     
##  8  2013     1     1     6 LGA    IAD   N829AS  EV     
##  9  2013     1     1     6 JFK    MCO   N593JB  B6     
## 10  2013     1     1     6 LGA    ORD   N3ALAA  AA     
## # ... with 336,766 more rows

(Kom ihåg att du i RStudio alltid kan använda view() för att runda detta problem.)

Låt oss säga att du nu vill komplettera med hela namnet på flygbolaget i flights2. Det kan du göra med left_join():

flights2 %>%
  select(-origin, -dest) %>% 
  left_join(airlines, by = "carrier")

## # A tibble: 336,776 x 7
##     year month   day  hour tailnum carrier name                    
##    <int> <int> <int> <dbl> <chr>   <chr>   <chr>                   
##  1  2013     1     1     5 N14228  UA      United Air Lines Inc.   
##  2  2013     1     1     5 N24211  UA      United Air Lines Inc.   
##  3  2013     1     1     5 N619AA  AA      American Airlines Inc.  
##  4  2013     1     1     5 N804JB  B6      JetBlue Airways         
##  5  2013     1     1     6 N668DN  DL      Delta Air Lines Inc.    
##  6  2013     1     1     5 N39463  UA      United Air Lines Inc.   
##  7  2013     1     1     6 N516JB  B6      JetBlue Airways         
##  8  2013     1     1     6 N829AS  EV      ExpressJet Airlines Inc.
##  9  2013     1     1     6 N593JB  B6      JetBlue Airways         
## 10  2013     1     1     6 N3ALAA  AA      American Airlines Inc.  
## # ... with 336,766 more rows

Rsultatet av sammanslagningen är en ytterligare variabel: ´name. Du kan få samma resultat med hjälp avmutate()`:

flights2 %>%
  select(-origin, -dest) %>% 
  mutate(name = airlines$name[match(carrier, airlines$carrier)])

## # A tibble: 336,776 x 7
##     year month   day  hour tailnum carrier name                    
##    <int> <int> <int> <dbl> <chr>   <chr>   <chr>                   
##  1  2013     1     1     5 N14228  UA      United Air Lines Inc.   
##  2  2013     1     1     5 N24211  UA      United Air Lines Inc.   
##  3  2013     1     1     5 N619AA  AA      American Airlines Inc.  
##  4  2013     1     1     5 N804JB  B6      JetBlue Airways         
##  5  2013     1     1     6 N668DN  DL      Delta Air Lines Inc.    
##  6  2013     1     1     5 N39463  UA      United Air Lines Inc.   
##  7  2013     1     1     6 N516JB  B6      JetBlue Airways         
##  8  2013     1     1     6 N829AS  EV      ExpressJet Airlines Inc.
##  9  2013     1     1     6 N593JB  B6      JetBlue Airways         
## 10  2013     1     1     6 N3ALAA  AA      American Airlines Inc.  
## # ... with 336,766 more rows
…
41.4.5 Definiera nyckel-kolumner (key columns)

Hittills har tabellerna alltid slagits samman med hjälp av en enskild variabel (definierad med by) vilken varit densamma i båda tabellerna. Men du kan använda andra värden till by för att binda samman tabellerna:

default är by = NULL, som användeer samtliga variabler som är lika i båda tabellerna. Till exempel matchar flights och weather-tabellerna via de gemensamma variablerna: year, month, day, hour och origin.

flights2 %>% 
  left_join(weather)

## Joining, by = c("year", "month", "day", "hour", "origin")

## # A tibble: 336,776 x 18
##     year month   day  hour origin dest  tailnum carrier  temp  dewp humid wind_dir wind_speed wind_gust precip pressure visib time_hour          
##    <int> <int> <int> <dbl> <chr>  <chr> <chr>   <chr>   <dbl> <dbl> <dbl>    <dbl>      <dbl>     <dbl>  <dbl>    <dbl> <dbl> <dttm>             
##  1  2013     1     1     5 EWR    IAH   N14228  UA       39.0  28.0  64.4      260       12.7      NA        0    1012.    10 2013-01-01 05:00:00
##  2  2013     1     1     5 LGA    IAH   N24211  UA       39.9  25.0  54.8      250       15.0      21.9      0    1011.    10 2013-01-01 05:00:00
##  3  2013     1     1     5 JFK    MIA   N619AA  AA       39.0  27.0  61.6      260       15.0      NA        0    1012.    10 2013-01-01 05:00:00
##  4  2013     1     1     5 JFK    BQN   N804JB  B6       39.0  27.0  61.6      260       15.0      NA        0    1012.    10 2013-01-01 05:00:00
##  5  2013     1     1     6 LGA    ATL   N668DN  DL       39.9  25.0  54.8      260       16.1      23.0      0    1012.    10 2013-01-01 06:00:00
##  6  2013     1     1     5 EWR    ORD   N39463  UA       39.0  28.0  64.4      260       12.7      NA        0    1012.    10 2013-01-01 05:00:00
##  7  2013     1     1     6 EWR    FLL   N516JB  B6       37.9  28.0  67.2      240       11.5      NA        0    1012.    10 2013-01-01 06:00:00
##  8  2013     1     1     6 LGA    IAD   N829AS  EV       39.9  25.0  54.8      260       16.1      23.0      0    1012.    10 2013-01-01 06:00:00
##  9  2013     1     1     6 JFK    MCO   N593JB  B6       37.9  27.0  64.3      260       13.8      NA        0    1013.    10 2013-01-01 06:00:00
## 10  2013     1     1     6 LGA    ORD   N3ALAA  AA       39.9  25.0  54.8      260       16.1      23.0      0    1012.    10 2013-01-01 06:00:00
## # ... with 336,766 more rows

en character-vektor, by = "x". Detta liknar ovanstående men använder endast en eller några av de gemensamma variablerna. Tilll exempel har både flightsoch planes yeargemensamt men de betyder olika saker så vi vill bara använda tailnumför att slå samman tabellerna:

flights2 %>% 
  left_join(planes, by = "tailnum")

## # A tibble: 336,776 x 16
##    year.x month   day  hour origin dest  tailnum carrier year.y type                    manufacturer     model       engines seats speed engine   
##     <int> <int> <int> <dbl> <chr>  <chr> <chr>   <chr>    <int> <chr>                   <chr>            <chr>         <int> <int> <int> <chr>    
##  1   2013     1     1     5 EWR    IAH   N14228  UA        1999 Fixed wing multi engine BOEING           737-824           2   149    NA Turbo-fan
##  2   2013     1     1     5 LGA    IAH   N24211  UA        1998 Fixed wing multi engine BOEING           737-824           2   149    NA Turbo-fan
##  3   2013     1     1     5 JFK    MIA   N619AA  AA        1990 Fixed wing multi engine BOEING           757-223           2   178    NA Turbo-fan
##  4   2013     1     1     5 JFK    BQN   N804JB  B6        2012 Fixed wing multi engine AIRBUS           A320-232          2   200    NA Turbo-fan
##  5   2013     1     1     6 LGA    ATL   N668DN  DL        1991 Fixed wing multi engine BOEING           757-232           2   178    NA Turbo-fan
##  6   2013     1     1     5 EWR    ORD   N39463  UA        2012 Fixed wing multi engine BOEING           737-924ER         2   191    NA Turbo-fan
##  7   2013     1     1     6 EWR    FLL   N516JB  B6        2000 Fixed wing multi engine AIRBUS INDUSTRIE A320-232          2   200    NA Turbo-fan
##  8   2013     1     1     6 LGA    IAD   N829AS  EV        1998 Fixed wing multi engine CANADAIR         CL-600-2B19       2    55    NA Turbo-fan
##  9   2013     1     1     6 JFK    MCO   N593JB  B6        2004 Fixed wing multi engine AIRBUS           A320-232          2   200    NA Turbo-fan
## 10   2013     1     1     6 LGA    ORD   N3ALAA  AA          NA <NA>                    <NA>             <NA>             NA    NA    NA <NA>     
## # ... with 336,766 more rows

Notera att year-variablerna fått ett suffix vilket för att understryka att det är två olika variabler.

en namngiven character-vektor, by = c("a" = "b"). Detta kommer att matcha variabelai tabellxmed variabelbi tabelly. Variablerna ixkommer att användas i output. Om vi till exempel vill göra en karta behöver vi kombineraflightsmedairports` vilken innehåller koordinaterna för flygplatserna. Eftersom varje flight har en avgångs-flygplats och en destination behöver vi specificera vilken av flygpplatserna som vi vill använda för kartan:

flights2 %>% 
  left_join(airports, c("dest" = "faa"))

## # A tibble: 336,776 x 15
##     year month   day  hour origin dest  tailnum carrier name                              lat   lon   alt    tz dst   tzone           
##    <int> <int> <int> <dbl> <chr>  <chr> <chr>   <chr>   <chr>                           <dbl> <dbl> <dbl> <dbl> <chr> <chr>           
##  1  2013     1     1     5 EWR    IAH   N14228  UA      George Bush Intercontinental     30.0 -95.3    97    -6 A     America/Chicago 
##  2  2013     1     1     5 LGA    IAH   N24211  UA      George Bush Intercontinental     30.0 -95.3    97    -6 A     America/Chicago 
##  3  2013     1     1     5 JFK    MIA   N619AA  AA      Miami Intl                       25.8 -80.3     8    -5 A     America/New_York
##  4  2013     1     1     5 JFK    BQN   N804JB  B6      <NA>                             NA    NA      NA    NA <NA>  <NA>            
##  5  2013     1     1     6 LGA    ATL   N668DN  DL      Hartsfield Jackson Atlanta Intl  33.6 -84.4  1026    -5 A     America/New_York
##  6  2013     1     1     5 EWR    ORD   N39463  UA      Chicago Ohare Intl               42.0 -87.9   668    -6 A     America/Chicago 
##  7  2013     1     1     6 EWR    FLL   N516JB  B6      Fort Lauderdale Hollywood Intl   26.1 -80.2     9    -5 A     America/New_York
##  8  2013     1     1     6 LGA    IAD   N829AS  EV      Washington Dulles Intl           38.9 -77.5   313    -5 A     America/New_York
##  9  2013     1     1     6 JFK    MCO   N593JB  B6      Orlando Intl                     28.4 -81.3    96    -5 A     America/New_York
## 10  2013     1     1     6 LGA    ORD   N3ALAA  AA      Chicago Ohare Intl               42.0 -87.9   668    -6 A     America/Chicago 
## # ... with 336,766 more rows

flights2 %>% 
  left_join(airports, c("origin" = "faa"))

## # A tibble: 336,776 x 15
##     year month   day  hour origin dest  tailnum carrier name                  lat   lon   alt    tz dst   tzone           
##    <int> <int> <int> <dbl> <chr>  <chr> <chr>   <chr>   <chr>               <dbl> <dbl> <dbl> <dbl> <chr> <chr>           
##  1  2013     1     1     5 EWR    IAH   N14228  UA      Newark Liberty Intl  40.7 -74.2    18    -5 A     America/New_York
##  2  2013     1     1     5 LGA    IAH   N24211  UA      La Guardia           40.8 -73.9    22    -5 A     America/New_York
##  3  2013     1     1     5 JFK    MIA   N619AA  AA      John F Kennedy Intl  40.6 -73.8    13    -5 A     America/New_York
##  4  2013     1     1     5 JFK    BQN   N804JB  B6      John F Kennedy Intl  40.6 -73.8    13    -5 A     America/New_York
##  5  2013     1     1     6 LGA    ATL   N668DN  DL      La Guardia           40.8 -73.9    22    -5 A     America/New_York
##  6  2013     1     1     5 EWR    ORD   N39463  UA      Newark Liberty Intl  40.7 -74.2    18    -5 A     America/New_York
##  7  2013     1     1     6 EWR    FLL   N516JB  B6      Newark Liberty Intl  40.7 -74.2    18    -5 A     America/New_York
##  8  2013     1     1     6 LGA    IAD   N829AS  EV      La Guardia           40.8 -73.9    22    -5 A     America/New_York
##  9  2013     1     1     6 JFK    MCO   N593JB  B6      John F Kennedy Intl  40.6 -73.8    13    -5 A     America/New_York
## 10  2013     1     1     6 LGA    ORD   N3ALAA  AA      La Guardia           40.8 -73.9    22    -5 A     America/New_York
## # ... with 336,766 more rows
…
